{
    "type": "FeatureCollection",
    "features": [

        {
            "type": "Feature",
            "properties": {
                "Name": "Gimme! Coffee",
                "BusType": "Home",
                "Description": "Gimme espresso bars are found in New York City and Upstate New York."

            },
            "geometry": {
                "type": "Point",
                "coordinates": [-74.0060, 40.7128]
            }
        }, {
            "type": "Feature",
            "properties": {
                "Name": "ZevRoss Spatial Analysis",
               "BusType": "Attr",
                "Description": "Specializes in spatial and environmental data analysis and statistics, geographic information systems and custom data design."
            },
            "geometry": {
                "type": "Point",
                "coordinates": [-73.9665, 40.7812]
            }
        }, {
            "type": "Feature",
            "properties": {
                "Name": "Argos Inn",
               "BusType": "Food",
                "Description": "Inn and cocktail bar in a beautifully restored historic mansion."

            },
            "geometry": {
                "type": "Point",
                "coordinates": [-73.8770, 40.8506]
            }
        } , {
            "type": "Feature",
            "properties": {
                "Name": "Argos Inn",
               "BusType": "Food",
                "Description": "Inn and cocktail bar in a beautifully restored historic mansion."

            },
            "geometry": {
                "type": "Point",
                "coordinates": [-73.9910, 40.7610]
            }
        }, {
            "type": "Feature",
            "properties": {
                "Name": "Stay Here",
               "BusType": "Home",
                "Description": "Inn and cocktail bar in a beautifully restored historic mansion."

            },
            "geometry": {
                "type": "Point",
                "coordinates": [-73.9918, 40.7638]
            }
        }





    ]

}
